xsim_work/i2c_waves.vcd
$date
   Tue May 12 23:47:13 2026
$end

$version
  2025.2
  $dumpfile ("i2c_waves.vcd") 
$end

$timescale
  1ps
$end

$scope module i2c_tb $end
$var reg 1 ! clk $end
$var reg 1 " rst_n $end
$scope module IF $end
$var wire 1 # clk $end
$var wire 1 $ rst_n $end
$var reg 1 % start $end
$var reg 1 & rw $end
$var reg 7 ' addr [6:0] $end
$var reg 8 ( data_in [7:0] $end
$var reg 8 ) data_out [7:0] $end
$var reg 1 * done $end
$var reg 1 + ack_error $end
$var reg 1 , scl $end
$var wire 1 - sda $end
$upscope $end
$scope module u_master $end
$var wire 1 . clk $end
$var wire 1 / rst_n $end
$var wire 1 0 start $end
$var wire 1 1 rw $end
$var wire 7 2 addr [6:0] $end
$var wire 8 3 data_in [7:0] $end
$var reg 8 4 data_out [7:0] $end
$var reg 1 5 done $end
$var reg 1 6 ack_error $end
$var reg 1 7 scl $end
$var wire 1 - sda $end
$var reg 1 8 sda_out $end
$var reg 1 9 sda_oe $end
$var reg 4 : state [3:0] $end
$var reg 3 ; bit_cnt [2:0] $end
$var reg 8 < shift_reg [7:0] $end
$var reg 1 = clk_div $end
$var reg 2 > div_cnt [1:0] $end
$upscope $end
$scope module u_slave $end
$var wire 1 ? clk $end
$var wire 1 @ rst_n $end
$var wire 1 A scl $end
$var wire 1 - sda $end
$var reg 8 B mem_data [7:0] $end
$var reg 1 C write_done $end
$var reg 1 D read_done $end
$var reg 1 E sda_out $end
$var reg 1 F sda_oe $end
$var reg 1 G sda_prev $end
$var wire 1 H start_det $end
$var wire 1 I stop_det $end
$var reg 3 J state [2:0] $end
$var reg 4 K bit_cnt [3:0] $end
$var reg 8 L shift_reg [7:0] $end
$var reg 1 M rw_flag $end
$var reg 3 N mem_ptr [2:0] $end
$upscope $end
$scope task gen $end
$upscope $end
$upscope $end
$enddefinitions $end

#0
$dumpvars
0!
0"
0#
0$
x%
x&
bx '
bx (
b0 )
0*
0+
1,
1-
0.
0/
x0
x1
bx 2
bx 3
b0 4
05
06
17
18
19
b0 :
b0 ;
b0 <
0=
b0 >
0?
0@
1A
b0 B
0C
0D
1E
0F
xG
0H
0I
b0 J
b0 K
b0 L
0M
b0 N
$end

#5000
1!
1#
1.
1?
1G

#10000
0!
0#
0.
0?

#15000
1!
1#
1.
1?

#20000
0!
0#
0.
0?

#25000
1!
1#
1.
1?

#30000
0!
0#
0.
0?

#35000
1!
1#
1.
1?

#40000
0!
0#
0.
0?

#45000
1!
1#
1.
1?

#50000
0!
0#
0.
0?

#55000
1!
1#
1.
1?

#60000
0!
0#
0.
0?

#65000
1!
1#
1.
1?

#70000
0!
0#
0.
0?

#75000
1!
1#
1.
1?

#80000
0!
0#
0.
0?

#85000
1!
1#
1.
1?

#90000
0!
0#
0.
0?

#95000
1!
1"
1#
1$
1.
1/
b1 >
1?
1@

#100000
0!
0#
0.
0?

#105000
1!
1#
1.
1=
b10 >
1?

#110000
0!
0#
0.
0?

#115000
1!
1#
1.
b11 >
1?

#120000
0!
0#
0.
0?

#125000
1!
1#
1.
b0 >
1?

#130000
0!
0#
0.
0?

#135000
1!
1#
1.
b1 >
1?

#140000
0!
0#
0.
0?

#145000
1!
1#
1.
0=
b10 >
1?

#150000
0!
0#
0.
0?

#155000
1!
1#
1.
b11 >
1?

#160000
0!
0#
0.
0?

#165000
1!
1#
1.
b0 >
1?

#170000
0!
0#
0.
0?

#175000
1!
1#
1.
b1 >
1?

#180000
0!
0#
0.
0?

#185000
1!
1#
1.
1=
b10 >
1?

#190000
0!
0#
0.
0?

#195000
1!
1#
1.
b11 >
1?

#200000
0!
0#
0.
0?

#205000
1!
1#
1.
b0 >
1?

#210000
0!
0#
0.
0?

#215000
1!
1#
1.
b1 >
1?

#220000
0!
0#
0.
0?

#225000
1!
1#
1.
0=
b10 >
1?

#230000
0!
0#
0.
0?

#235000
1!
1#
1.
b11 >
1?

#240000
0!
0#
0.
0?

#245000
1!
1#
1%
1&
b1111111 '
b10101010 (
1.
10
11
b1111111 2
b10101010 3
b0 >
1?

#250000
0!
0#
0.
0?

#255000
1!
1#
1.
b1 >
1?

#260000
0!
0#
0.
0?

#265000
1!
1#
1.
b1 :
1=
b10 >
1?

#270000
0!
0#
0.
0?

#275000
1!
1#
1.
b11 >
1?

#280000
0!
0#
0.
0?

#285000
1!
1#
1.
b0 >
1?

#290000
0!
0#
0.
0?

#295000
1!
1#
1.
b1 >
1?

#300000
0!
0#
0.
0?

#305000
1!
1#
1.
0=
b10 >
1?

#310000
0!
0#
0.
0?

#315000
1!
1#
1.
b11 >
1?

#320000
0!
0#
0.
0?

#325000
1!
1#
1.
b0 >
1?

#330000
0!
0#
0.
0?

#335000
1!
1#
1.
b1 >
1?

#340000
0!
0#
0.
0?

#345000
1!
1#
0%
0-
1.
00
08
b10 :
b110 ;
1=
b10 >
1?
1H

#350000
0!
0#
0.
0?

#355000
1!
1#
1.
b11 >
1?
0G
0H
b1 J
b111 K

#360000
0!
0#
0.
0?

#365000
1!
1#
1.
b0 >
1?
b110 K

#370000
0!
0#
0.
0?

#375000
1!
1#
1.
b1 >
1?
b101 K

#380000
0!
0#
0.
0?

#385000
1!
1#
1.
0=
b10 >
1?
b100 K

#390000
0!
0#
0.
0?

#395000
1!
1#
1.
b11 >
1?
b11 K

#400000
0!
0#
0.
0?

#405000
1!
1#
1.
b0 >
1?
b10 K

#410000
0!
0#
0.
0?

#415000
1!
1#
1.
b1 >
1?
b1 K

#420000
0!
0#
0.
0?

#425000
1!
1#
1-
1.
17
18
b101 ;
1=
b10 >
1?
1I
b0 K

#430000
0!
0#
0.
0?

#435000
1!
1#
1.
b11 >
1?
1G
0I
b0 J

#440000
0!
0#
0.
0?

#445000
1!
1#
1.
b0 >
1?

#450000
0!
0#
0.
0?

#455000
1!
1#
1.
b1 >
1?

#460000
0!
0#
0.
0?

#465000
1!
1#
1.
0=
b10 >
1?

#470000
0!
0#
0.
0?

#475000
1!
1#
1.
b11 >
1?

#480000
0!
0#
0.
0?

#485000
1!
1#
1.
b0 >
1?

#490000
0!
0#
0.
0?

#495000
1!
1#
1.
b1 >
1?

#500000
0!
0#
0.
0?

#505000
1!
1#
1.
17
b100 ;
1=
b10 >
1?

#510000
0!
0#
0.
0?

#515000
1!
1#
1.
b11 >
1?

#520000
0!
0#
0.
0?

#525000
1!
1#
1.
b0 >
1?

#530000
0!
0#
0.
0?

#535000
1!
1#
1.
b1 >
1?

#540000
0!
0#
0.
0?

#545000
1!
1#
1.
0=
b10 >
1?

#550000
0!
0#
0.
0?

#555000
1!
1#
1.
b11 >
1?

#560000
0!
0#
0.
0?

#565000
1!
1#
1.
b0 >
1?

#570000
0!
0#
0.
0?

#575000
1!
1#
1.
b1 >
1?

#580000
0!
0#
0.
0?

#585000
1!
1#
1.
17
b11 ;
1=
b10 >
1?

#590000
0!
0#
0.
0?

#595000
1!
1#
1.
b11 >
1?

#600000
0!
0#
0.
0?

#605000
1!
1#
1.
b0 >
1?

#610000
0!
0#
0.
0?

#615000
1!
1#
1.
b1 >
1?

#620000
0!
0#
0.
0?

#625000
1!
1#
1.
0=
b10 >
1?

#630000
0!
0#
0.
0?

#635000
1!
1#
1.
b11 >
1?

#640000
0!
0#
0.
0?

#645000
1!
1#
1.
b0 >
1?

#650000
0!
0#
0.
0?

#655000
1!
1#
1.
b1 >
1?

#660000
0!
0#
0.
0?

#665000
1!
1#
1.
17
b10 ;
1=
b10 >
1?

#670000
0!
0#
0.
0?

#675000
1!
1#
1.
b11 >
1?

#680000
0!
0#
0.
0?

#685000
1!
1#
1.
b0 >
1?

#690000
0!
0#
0.
0?

#695000
1!
1#
1.
b1 >
1?

#700000
0!
0#
0.
0?

#705000
1!
1#
1.
0=
b10 >
1?

#710000
0!
0#
0.
0?

#715000
1!
1#
1.
b11 >
1?

#720000
0!
0#
0.
0?

#725000
1!
1#
1.
b0 >
1?

#730000
0!
0#
0.
0?

#735000
1!
1#
1.
b1 >
1?

#740000
0!
0#
0.
0?

#745000
1!
1#
1.
17
b1 ;
1=
b10 >
1?

#750000
0!
0#
0.
0?

#755000
1!
1#
1.
b11 >
1?

#760000
0!
0#
0.
0?

#765000
1!
1#
1.
b0 >
1?

#770000
0!
0#
0.
0?

#775000
1!
1#
1.
b1 >
1?

#780000
0!
0#
0.
0?

#785000
1!
1#
1.
0=
b10 >
1?

#790000
0!
0#
0.
0?

#795000
1!
1#
1.
b11 >
1?

#800000
0!
0#
0.
0?

#805000
1!
1#
1.
b0 >
1?

#810000
0!
0#
0.
0?

#815000
1!
1#
1.
b1 >
1?

#820000
0!
0#
0.
0?

#825000
1!
1#
1.
17
b0 ;
1=
b10 >
1?

#830000
0!
0#
0.
0?

#835000
1!
1#
1.
b11 >
1?

#840000
0!
0#
0.
0?

#845000
1!
1#
1.
b0 >
1?

#850000
0!
0#
0.
0?

#855000
1!
1#
1.
b1 >
1?

#860000
0!
0#
0.
0?

#865000
1!
1#
1.
0=
b10 >
1?

#870000
0!
0#
0.
0?

#875000
1!
1#
1.
b11 >
1?

#880000
0!
0#
0.
0?

#885000
1!
1#
1.
b0 >
1?

#890000
0!
0#
0.
0?

#895000
1!
1#
1.
b1 >
1?

#900000
0!
0#
0.
0?

#905000
1!
1#
1.
17
b11 :
1=
b10 >
1?

#910000
0!
0#
0.
0?

#915000
1!
1#
1.
b11 >
1?

#920000
0!
0#
0.
0?

#925000
1!
1#
1.
b0 >
1?

#930000
0!
0#
0.
0?

#935000
1!
1#
1.
b1 >
1?

#940000
0!
0#
0.
0?

#945000
1!
1#
1.
0=
b10 >
1?

#950000
0!
0#
0.
0?

#955000
1!
1#
1.
b11 >
1?

#960000
0!
0#
0.
0?

#965000
1!
1#
1.
b0 >
1?

#970000
0!
0#
0.
0?

#975000
1!
1#
1.
b1 >
1?

#980000
0!
0#
0.
0?

#985000
1!
1#
1.
17
b100 :
1=
b10 >
1?

#990000
0!
0#
0.
0?

#995000
1!
1#
1.
b11 >
1?

#1000000
0!
0#
0.
0?

#1005000
1!
1#
1.
b0 >
1?

#1010000
0!
0#
0.
0?

#1015000
1!
1#
1.
b1 >
1?

#1020000
0!
0#
0.
0?

#1025000
1!
1#
1.
0=
b10 >
1?

#1030000
0!
0#
0.
0?

#1035000
1!
1#
1.
b11 >
1?

#1040000
0!
0#
0.
0?

#1045000
1!
1#
1.
b0 >
1?

#1050000
0!
0#
0.
0?

#1055000
1!
1#
1.
b1 >
1?

#1060000
0!
0#
0.
0?

#1065000
1!
1#
1+
z-
1.
16
17
09
b1001 :
1=
b10 >
1?

#1070000
0!
0#
0.
0?

#1075000
1!
1#
1.
b11 >
1?
zG

#1080000
0!
0#
0.
0?

#1085000
1!
1#
1.
b0 >
1?

#1090000
0!
0#
0.
0?

#1095000
1!
1#
1.
b1 >
1?

#1100000
0!
0#
0.
0?

#1105000
1!
1#
1.
0=
b10 >
1?

#1110000
0!
0#
0.
0?

#1115000
1!
1#
1.
b11 >
1?

#1120000
0!
0#
0.
0?

#1125000
1!
1#
1.
b0 >
1?

#1130000
0!
0#
0.
0?

#1135000
1!
1#
1.
b1 >
1?

#1140000
0!
0#
0.
0?

#1145000
1!
1#
1*
0+
1-
1.
15
06
17
18
19
b0 :
1=
b10 >
1?

#1150000
0!
0#
0.
0?

#1155000
1!
1#
1.
b11 >
1?
1G

#1160000
0!
0#
0.
0?

#1165000
1!
1#
1.
b0 >
1?

#1170000
0!
0#
0.
0?

#1175000
1!
1#
1.
b1 >
1?

#1180000
0!
0#
0.
0?

#1185000
1!
1#
1.
0=
b10 >
1?

#1190000
0!
0#
0.
0?

#1195000
1!
1#
1.
b11 >
1?

#1200000
0!
0#
0.
0?

#1205000
1!
1#
1.
b0 >
1?

#1210000
0!
0#
0.
0?

#1215000
1!
1#
1.
b1 >
1?

#1220000
0!
0#
0.
0?

#1225000
1!
1#
0*
1.
05
1=
b10 >
1?

#1230000
0!
0#
0.
0?

#1235000
1!
1#
1.
b11 >
1?

#1240000
0!
0#
0.
0?

#1245000
1!
1#
1%
0&
b11111111 (
1.
10
01
b11111111 3
b0 >
1?

#1250000
0!
0#
0.
0?

#1255000
1!
1#
1.
b1 >
1?

#1260000
0!
0#
0.
0?

#1265000
1!
1#
1.
0=
b10 >
1?

#1270000
0!
0#
0.
0?

#1275000
1!
1#
1.
b11 >
1?

#1280000
0!
0#
0.
0?

#1285000
1!
1#
1.
b0 >
1?

#1290000
0!
0#
0.
0?

#1295000
1!
1#
1.
b1 >
1?

#1300000
0!
0#
0.
0?

#1305000
1!
1#
1.
b1 :
1=
b10 >
1?

#1310000
0!
0#
0.
0?

#1315000
1!
1#
1.
b11 >
1?

#1320000
0!
0#
0.
0?

#1325000
1!
1#
1.
b0 >
1?

#1330000
0!
0#
0.
0?

#1335000
1!
1#
1.
b1 >
1?

#1340000
0!
0#
0.
0?

#1345000
1!
1#
0%
1.
00
0=
b10 >
1?

#1350000
0!
0#
0.
0?

#1355000
1!
1#
1.
b11 >
1?

#1360000
0!
0#
0.
0?

#1365000
1!
1#
1.
b0 >
1?

#1370000
0!
0#
0.
0?

#1375000
1!
1#
1.
b1 >
1?

#1380000
0!
0#
0.
0?

#1385000
1!
1#
0-
1.
08
b10 :
b110 ;
1=
b10 >
1?
1H

#1390000
0!
0#
0.
0?

#1395000
1!
1#
1.
b11 >
1?
0G
0H
b1 J
b111 K

#1400000
0!
0#
0.
0?

#1405000
1!
1#
1.
b0 >
1?
b110 K

#1410000
0!
0#
0.
0?

#1415000
1!
1#
1.
b1 >
1?
b101 K

#1420000
0!
0#
0.
0?

#1425000
1!
1#
1.
0=
b10 >
1?
b100 K

#1430000
0!
0#
0.
0?

#1435000
1!
1#
1.
b11 >
1?
b11 K

#1440000
0!
0#
0.
0?

#1445000
1!
1#
1.
b0 >
1?
b10 K

#1450000
0!
0#
0.
0?

#1455000
1!
1#
1.
b1 >
1?
b1 K

#1460000
0!
0#
0.
0?

#1465000
1!
1#
1-
1.
17
18
b101 ;
1=
b10 >
1?
1I
b0 K

#1470000
0!
0#
0.
0?

#1475000
1!
1#
1.
b11 >
1?
1G
0I
b0 J

#1480000
0!
0#
0.
0?

#1485000
1!
1#
1.
b0 >
1?

#1490000
0!
0#
0.
0?

#1495000
1!
1#
1.
b1 >
1?

#1500000
0!
0#
0.
0?

#1505000
1!
1#
1.
0=
b10 >
1?

#1510000
0!
0#
0.
0?

#1515000
1!
1#
1.
b11 >
1?

#1520000
0!
0#
0.
0?

#1525000
1!
1#
1.
b0 >
1?

#1530000
0!
0#
0.
0?

#1535000
1!
1#
1.
b1 >
1?

#1540000
0!
0#
0.
0?

#1545000
1!
1#
1.
17
b100 ;
1=
b10 >
1?

#1550000
0!
0#
0.
0?

#1555000
1!
1#
1.
b11 >
1?

#1560000
0!
0#
0.
0?

#1565000
1!
1#
1.
b0 >
1?

#1570000
0!
0#
0.
0?

#1575000
1!
1#
1.
b1 >
1?

#1580000
0!
0#
0.
0?

#1585000
1!
1#
1.
0=
b10 >
1?

#1590000
0!
0#
0.
0?

#1595000
1!
1#
1.
b11 >
1?

#1600000
0!
0#
0.
0?

#1605000
1!
1#
1.
b0 >
1?

#1610000
0!
0#
0.
0?

#1615000
1!
1#
1.
b1 >
1?

#1620000
0!
0#
0.
0?

#1625000
1!
1#
1.
17
b11 ;
1=
b10 >
1?

#1630000
0!
0#
0.
0?

#1635000
1!
1#
1.
b11 >
1?

#1640000
0!
0#
0.
0?

#1645000
1!
1#
1.
b0 >
1?

#1650000
0!
0#
0.
0?

#1655000
1!
1#
1.
b1 >
1?

#1660000
0!
0#
0.
0?

#1665000
1!
1#
1.
0=
b10 >
1?

#1670000
0!
0#
0.
0?

#1675000
1!
1#
1.
b11 >
1?

#1680000
0!
0#
0.
0?

#1685000
1!
1#
1.
b0 >
1?

#1690000
0!
0#
0.
0?

#1695000
1!
1#
1.
b1 >
1?

#1700000
0!
0#
0.
0?

#1705000
1!
1#
1.
17
b10 ;
1=
b10 >
1?

#1710000
0!
0#
0.
0?

#1715000
1!
1#
1.
b11 >
1?

#1720000
0!
0#
0.
0?

#1725000
1!
1#
1.
b0 >
1?

#1730000
0!
0#
0.
0?

#1735000
1!
1#
1.
b1 >
1?

#1740000
0!
0#
0.
0?

#1745000
1!
1#
1.
0=
b10 >
1?

#1750000
0!
0#
0.
0?

#1755000
1!
1#
1.
b11 >
1?

#1760000
0!
0#
0.
0?

#1765000
1!
1#
1.
b0 >
1?

#1770000
0!
0#
0.
0?

#1775000
1!
1#
1.
b1 >
1?

#1780000
0!
0#
0.
0?

#1785000
1!
1#
1.
17
b1 ;
1=
b10 >
1?

#1790000
0!
0#
0.
0?

#1795000
1!
1#
1.
b11 >
1?

#1800000
0!
0#
0.
0?

#1805000
1!
1#
1.
b0 >
1?

#1810000
0!
0#
0.
0?

#1815000
1!
1#
1.
b1 >
1?

#1820000
0!
0#
0.
0?

#1825000
1!
1#
1.
0=
b10 >
1?

#1830000
0!
0#
0.
0?

#1835000
1!
1#
1.
b11 >
1?

#1840000
0!
0#
0.
0?

#1845000
1!
1#
1.
b0 >
1?

#1850000
0!
0#
0.
0?

#1855000
1!
1#
1.
b1 >
1?

#1860000
0!
0#
0.
0?

#1865000
1!
1#
1.
17
b0 ;
1=
b10 >
1?

#1870000
0!
0#
0.
0?

#1875000
1!
1#
1.
b11 >
1?

#1880000
0!
0#
0.
0?

#1885000
1!
1#
1.
b0 >
1?

#1890000
0!
0#
0.
0?

#1895000
1!
1#
1.
b1 >
1?

#1900000
0!
0#
0.
0?

#1905000
1!
1#
1.
0=
b10 >
1?

#1910000
0!
0#
0.
0?

#1915000
1!
1#
1.
b11 >
1?

#1920000
0!
0#
0.
0?

#1925000
1!
1#
1.
b0 >
1?

#1930000
0!
0#
0.
0?

#1935000
1!
1#
1.
b1 >
1?

#1940000
0!
0#
0.
0?

#1945000
1!
1#
1.
17
b11 :
1=
b10 >
1?

#1950000
0!
0#
0.
0?

#1955000
1!
1#
1.
b11 >
1?

#1960000
0!
0#
0.
0?

#1965000
1!
1#
1.
b0 >
1?

#1970000
0!
0#
0.
0?

#1975000
1!
1#
1.
b1 >
1?

#1980000
0!
0#
0.
0?

#1985000
1!
1#
1.
0=
b10 >
1?

#1990000
0!
0#
0.
0?

#1995000
1!
1#
1.
b11 >
1?

#2000000
0!
0#
0.
0?

#2005000
1!
1#
1.
b0 >
1?

#2010000
0!
0#
0.
0?

#2015000
1!
1#
1.
b1 >
1?

#2020000
0!
0#
0.
0?

#2025000
1!
1#
0-
1.
17
08
b100 :
1=
b10 >
1?
1H

#2030000
0!
0#
0.
0?

#2035000
1!
1#
1.
b11 >
1?
0G
0H
b1 J
b111 K

#2040000
0!
0#
0.
0?

#2045000
1!
1#
1.
b0 >
1?
b110 K

#2050000
0!
0#
0.
0?

#2055000
1!
1#
1.
b1 >
1?
b101 K

#2060000
0!
0#
0.
0?

#2065000
1!
1#
1.
0=
b10 >
1?
b100 K

#2070000
0!
0#
0.
0?

#2075000
1!
1#
1.
b11 >
1?
b11 K

#2080000
0!
0#
0.
0?

#2085000
1!
1#
1.
b0 >
1?
b10 K

#2090000
0!
0#
0.
0?

#2095000
1!
1#
1.
b1 >
1?
b1 K

#2100000
0!
0#
0.
0?

#2105000
1!
1#
z-
1.
17
09
b101 :
b111 ;
b11111111 <
1=
b10 >
1?
b0 K

#2110000
0!
0#
0.
0?

#2115000
1!
1#
1.
b11 >
1?
zG
b10 J
b1111 K
b0z L
zM

#2120000
0!
0#
0.
0?

#2125000
1!
1#
1.
b0 >
1?

#2130000
0!
0#
0.
0?

#2135000
1!
1#
1.
b1 >
1?

#2140000
0!
0#
0.
0?

#2145000
1!
1#
1.
0=
b10 >
1?

#2150000
0!
0#
0.
0?

#2155000
1!
1#
1.
b11 >
1?

#2160000
0!
0#
0.
0?

#2165000
1!
1#
1.
b0 >
1?

#2170000
0!
0#
0.
0?

#2175000
1!
1#
1.
b1 >
1?

#2180000
0!
0#
0.
0?

#2185000
1!
1#
1-
1.
17
18
19
b110 ;
b11111110 <
1=
b10 >
1?

#2190000
0!
0#
0.
0?

#2195000
1!
1#
1.
b11 >
1?
1G

#2200000
0!
0#
0.
0?

#2205000
1!
1#
1.
b0 >
1?

#2210000
0!
0#
0.
0?

#2215000
1!
1#
1.
b1 >
1?

#2220000
0!
0#
0.
0?

#2225000
1!
1#
1.
0=
b10 >
1?

#2230000
0!
0#
0.
0?

#2235000
1!
1#
1.
b11 >
1?

#2240000
0!
0#
0.
0?

#2245000
1!
1#
1.
b0 >
1?

#2250000
0!
0#
0.
0?

#2255000
1!
1#
1.
b1 >
1?

#2260000
0!
0#
0.
0?

#2265000
1!
1#
1.
17
b101 ;
b11111100 <
1=
b10 >
1?

#2270000
0!
0#
0.
0?

#2275000
1!
1#
1.
b11 >
1?

#2280000
0!
0#
0.
0?

#2285000
1!
1#
1.
b0 >
1?

#2290000
0!
0#
0.
0?

#2295000
1!
1#
1.
b1 >
1?

#2300000
0!
0#
0.
0?

#2305000
1!
1#
1.
0=
b10 >
1?

#2310000
0!
0#
0.
0?

#2315000
1!
1#
1.
b11 >
1?

#2320000
0!
0#
0.
0?

#2325000
1!
1#
1.
b0 >
1?

#2330000
0!
0#
0.
0?

#2335000
1!
1#
1.
b1 >
1?

#2340000
0!
0#
0.
0?

#2345000
1!
1#
1.
17
b100 ;
b11111000 <
1=
b10 >
1?

#2350000
0!
0#
0.
0?

#2355000
1!
1#
1.
b11 >
1?

#2360000
0!
0#
0.
0?

#2365000
1!
1#
1.
b0 >
1?

#2370000
0!
0#
0.
0?

#2375000
1!
1#
1.
b1 >
1?

#2380000
0!
0#
0.
0?

#2385000
1!
1#
1.
0=
b10 >
1?

#2390000
0!
0#
0.
0?

#2395000
1!
1#
1.
b11 >
1?

#2400000
0!
0#
0.
0?

#2405000
1!
1#
1.
b0 >
1?

#2410000
0!
0#
0.
0?

#2415000
1!
1#
1.
b1 >
1?

#2420000
0!
0#
0.
0?

#2425000
1!
1#
1.
17
b11 ;
b11110000 <
1=
b10 >
1?

#2430000
0!
0#
0.
0?

#2435000
1!
1#
1.
b11 >
1?

#2440000
0!
0#
0.
0?

#2445000
1!
1#
1.
b0 >
1?

#2450000
0!
0#
0.
0?

#2455000
1!
1#
1.
b1 >
1?

#2460000
0!
0#
0.
0?

#2465000
1!
1#
1.
0=
b10 >
1?

#2470000
0!
0#
0.
0?

#2475000
1!
1#
1.
b11 >
1?

#2480000
0!
0#
0.
0?

#2485000
1!
1#
1.
b0 >
1?

#2490000
0!
0#
0.
0?

#2495000
1!
1#
1.
b1 >
1?

#2500000
0!
0#
0.
0?

#2505000
1!
1#
1.
17
b10 ;
b11100000 <
1=
b10 >
1?

#2510000
0!
0#
0.
0?

#2515000
1!
1#
1.
b11 >
1?

#2520000
0!
0#
0.
0?

#2525000
1!
1#
1.
b0 >
1?

#2530000
0!
0#
0.
0?

#2535000
1!
1#
1.
b1 >
1?

#2540000
0!
0#
0.
0?

#2545000
1!
1#
1.
0=
b10 >
1?

#2550000
0!
0#
0.
0?

#2555000
1!
1#
1.
b11 >
1?

#2560000
0!
0#
0.
0?

#2565000
1!
1#
1.
b0 >
1?

#2570000
0!
0#
0.
0?

#2575000
1!
1#
1.
b1 >
1?

#2580000
0!
0#
0.
0?

#2585000
1!
1#
1.
17
b1 ;
b11000000 <
1=
b10 >
1?

#2590000
0!
0#
0.
0?

#2595000
1!
1#
1.
b11 >
1?

#2600000
0!
0#
0.
0?

#2605000
1!
1#
1.
b0 >
1?

#2610000
0!
0#
0.
0?

#2615000
1!
1#
1.
b1 >
1?

#2620000
0!
0#
0.
0?

#2625000
1!
1#
1.
0=
b10 >
1?

#2630000
0!
0#
0.
0?

#2635000
1!
1#
1.
b11 >
1?

#2640000
0!
0#
0.
0?

#2645000
1!
1#
1.
b0 >
1?

#2650000
0!
0#
0.
0?

#2655000
1!
1#
1.
b1 >
1?

#2660000
0!
0#
0.
0?

#2665000
1!
1#
1.
17
b0 ;
b10000000 <
1=
b10 >
1?

#2670000
0!
0#
0.
0?

#2675000
1!
1#
1.
b11 >
1?

#2680000
0!
0#
0.
0?

#2685000
1!
1#
1.
b0 >
1?

#2690000
0!
0#
0.
0?

#2695000
1!
1#
1.
b1 >
1?

#2700000
0!
0#
0.
0?

#2705000
1!
1#
1.
0=
b10 >
1?

#2710000
0!
0#
0.
0?

#2715000
1!
1#
1.
b11 >
1?

#2720000
0!
0#
0.
0?

#2725000
1!
1#
1.
b0 >
1?

#2730000
0!
0#
0.
0?

#2735000
1!
1#
1.
b1 >
1?

#2740000
0!
0#
0.
0?

#2745000
1!
1#
1.
17
b111 :
b0 <
1=
b10 >
1?

#2750000
0!
0#
0.
0?

#2755000
1!
1#
1.
b11 >
1?

#2760000
0!
0#
0.
0?

#2765000
1!
1#
1.
b0 >
1?

#2770000
0!
0#
0.
0?

#2775000
1!
1#
1.
b1 >
1?

#2780000
0!
0#
0.
0?

#2785000
1!
1#
1.
0=
b10 >
1?

#2790000
0!
0#
0.
0?

#2795000
1!
1#
1.
b11 >
1?

#2800000
0!
0#
0.
0?

#2805000
1!
1#
1.
b0 >
1?

#2810000
0!
0#
0.
0?

#2815000
1!
1#
1.
b1 >
1?

#2820000
0!
0#
0.
0?

#2825000
1!
1#
1+
z-
1.
16
17
09
b1001 :
1=
b10 >
1?

#2830000
0!
0#
0.
0?

#2835000
1!
1#
1.
b11 >
1?
zG

#2840000
0!
0#
0.
0?

#2845000
1!
1#
1.
b0 >
1?

#2850000
0!
0#
0.
0?

#2855000
1!
1#
1.
b1 >
1?

#2860000
0!
0#
0.
0?

#2865000
1!
1#
1.
0=
b10 >
1?

#2870000
0!
0#
0.
0?

#2875000
1!
1#
1.
b11 >
1?

#2880000
0!
0#
0.
0?

#2885000
1!
1#
1.
b0 >
1?

#2890000
0!
0#
0.
0?

#2895000
1!
1#
1.
b1 >
1?

#2900000
0!
0#
0.
0?

#2905000
1!
1#
1*
0+
1-
1.
15
06
17
18
19
b0 :
1=
b10 >
1?

#2910000
0!
0#
0.
0?

#2915000
1!
1#
1.
b11 >
1?
1G

#2920000
0!
0#
0.
0?

#2925000
1!
1#
1.
b0 >
1?

#2930000
0!
0#
0.
0?

#2935000
1!
1#
1.
b1 >
1?

#2940000
0!
0#
0.
0?

#2945000
1!
1#
1.
0=
b10 >
1?

#2950000
0!
0#
0.
0?

#2955000
1!
1#
1.
b11 >
1?

#2960000
0!
0#
0.
0?

#2965000
1!
1#
1.
b0 >
1?

#2970000
0!
0#
0.
0?

#2975000
1!
1#
1.
b1 >
1?

#2980000
0!
0#
0.
0?

#2985000
1!
1#
0*
1.
05
1=
b10 >
1?

#2990000
0!
0#
0.
0?

#2995000
1!
1#
1.
b11 >
1?

#3000000
0!
0#
0.
0?

#3005000
1!
1#
1%
b10101010 (
1.
10
b10101010 3
b0 >
1?

#3010000
0!
0#
0.
0?

#3015000
1!
1#
1.
b1 >
1?

#3020000
0!
0#
0.
0?

#3025000
1!
1#
1.
0=
b10 >
1?

#3030000
0!
0#
0.
0?

#3035000
1!
1#
1.
b11 >
1?

#3040000
0!
0#
0.
0?

#3045000
1!
1#
1.
b0 >
1?

#3050000
0!
0#
0.
0?

#3055000
1!
1#
1.
b1 >
1?

#3060000
0!
0#
0.
0?

#3065000
1!
1#
1.
b1 :
1=
b10 >
1?

#3070000
0!
0#
0.
0?

#3075000
1!
1#
1.
b11 >
1?

#3080000
0!
0#
0.
0?

#3085000
1!
1#
1.
b0 >
1?

#3090000
0!
0#
0.
0?

#3095000
1!
1#
1.
b1 >
1?

#3100000
0!
0#
0.
0?

#3105000
1!
1#
0%
1.
00
0=
b10 >
1?

#3110000
0!
0#
0.
0?

#3115000
1!
1#
1.
b11 >
1?

#3120000
0!
0#
0.
0?

#3125000
1!
1#
1.
b0 >
1?

#3130000
0!
0#
0.
0?

#3135000
1!
1#
1.
b1 >
1?

#3140000
0!
0#
0.
0?

#3145000
1!
1#
0-
1.
08
b10 :
b110 ;
1=
b10 >
1?
1H

#3150000
0!
0#
0.
0?

#3155000
1!
1#
1.
b11 >
1?
0G
0H
b1 J
b111 K
b0 L

#3160000
0!
0#
0.
0?

#3165000
1!
1#
1.
b0 >
1?
b110 K

#3170000
0!
0#
0.
0?

#3175000
1!
1#
1.
b1 >
1?
b101 K

#3180000
0!
0#
0.
0?

#3185000
1!
1#
1.
0=
b10 >
1?
b100 K

#3190000
0!
0#
0.
0?

#3195000
1!
1#
1.
b11 >
1?
b11 K

#3200000
0!
0#
0.
0?

#3205000
1!
1#
1.
b0 >
1?
b10 K

#3210000
0!
0#
0.
0?

#3215000
1!
1#
1.
b1 >
1?
b1 K

#3220000
0!
0#
0.
0?

#3225000
1!
1#
1-
1.
17
18
b101 ;
1=
b10 >
1?
1I
b0 K

#3230000
0!
0#
0.
0?

#3235000
1!
1#
1.
b11 >
1?
1G
0I
b0 J

#3240000
0!
0#
0.
0?

#3245000
1!
1#
1.
b0 >
1?

#3250000
0!
0#
0.
0?

#3255000
1!
1#
1.
b1 >
1?

#3260000
0!
0#
0.
0?

#3265000
1!
1#
1.
0=
b10 >
1?

#3270000
0!
0#
0.
0?

#3275000
1!
1#
1.
b11 >
1?

#3280000
0!
0#
0.
0?

#3285000
1!
1#
1.
b0 >
1?

#3290000
0!
0#
0.
0?

#3295000
1!
1#
1.
b1 >
1?

#3300000
0!
0#
0.
0?

#3305000
1!
1#
1.
17
b100 ;
1=
b10 >
1?

#3310000
0!
0#
0.
0?

#3315000
1!
1#
1.
b11 >
1?

#3320000
0!
0#
0.
0?

#3325000
1!
1#
1.
b0 >
1?

#3330000
0!
0#
0.
0?

