i2c_ai_verification.sim/sim_1/behav/xsim/i2c_waves.vcd
$date
   Tue May 12 23:57:25 2026
$end

$version
  2025.2
  $dumpfile ("i2c_waves.vcd") 
$end

$timescale
  1ps
$end

$scope module i2c_tb $end
$var reg 1 ! clk $end
$var reg 1 " rst_n $end
$scope module IF $end
$var wire 1 # clk $end
$var wire 1 $ rst_n $end
$var reg 1 % start $end
$var reg 1 & rw $end
$var reg 7 ' addr [6:0] $end
$var reg 8 ( data_in [7:0] $end
$var reg 8 ) data_out [7:0] $end
$var reg 1 * done $end
$var reg 1 + ack_error $end
$var reg 1 , scl $end
$var wire 1 - sda $end
$upscope $end
$scope module u_master $end
$var wire 1 . clk $end
$var wire 1 / rst_n $end
$var wire 1 0 start $end
$var wire 1 1 rw $end
$var wire 7 2 addr [6:0] $end
$var wire 8 3 data_in [7:0] $end
$var reg 8 4 data_out [7:0] $end
$var reg 1 5 done $end
$var reg 1 6 ack_error $end
$var reg 1 7 scl $end
$var wire 1 - sda $end
$var reg 1 8 sda_out $end
$var reg 1 9 sda_oe $end
$var reg 4 : state [3:0] $end
$var reg 3 ; bit_cnt [2:0] $end
$var reg 8 < shift_reg [7:0] $end
$var reg 1 = clk_div $end
$var reg 2 > div_cnt [1:0] $end
$upscope $end
$scope module u_slave $end
$var wire 1 ? clk $end
$var wire 1 @ rst_n $end
$var wire 1 A scl $end
$var wire 1 - sda $end
$var reg 8 B mem_data [7:0] $end
$var reg 1 C write_done $end
$var reg 1 D read_done $end
$var reg 1 E sda_out $end
$var reg 1 F sda_oe $end
$var reg 1 G sda_prev $end
$var wire 1 H start_det $end
$var wire 1 I stop_det $end
$var reg 3 J state [2:0] $end
$var reg 4 K bit_cnt [3:0] $end
$var reg 8 L shift_reg [7:0] $end
$var reg 1 M rw_flag $end
$var reg 3 N mem_ptr [2:0] $end
$upscope $end
$scope task gen $end
$upscope $end
$upscope $end
$enddefinitions $end

#0
$dumpvars
0!
0"
0#
0$
x%
x&
bx '
bx (
b0 )
0*
0+
1,
1-
0.
0/
x0
x1
bx 2
bx 3
b0 4
05
06
17
18
19
b0 :
b0 ;
b0 <
0=
b0 >
0?
0@
1A
b0 B
0C
0D
1E
0F
xG
0H
0I
b0 J
b0 K
b0 L
0M
b0 N
$end

#5000
1!
1#
1.
1?
1G

#10000
0!
0#
0.
0?

#15000
1!
1#
1.
1?

#20000
0!
0#
0.
0?

#25000
1!
1#
1.
1?

#30000
0!
0#
0.
0?

#35000
1!
1#
1.
1?

#40000
0!
0#
0.
0?

#45000
1!
1#
1.
1?

#50000
0!
0#
0.
0?

#55000
1!
1#
1.
1?

#60000
0!
0#
0.
0?

#65000
1!
1#
1.
1?

#70000
0!
0#
0.
0?

#75000
1!
1#
1.
1?

#80000
0!
0#
0.
0?

#85000
1!
1#
1.
1?

#90000
0!
0#
0.
0?

#95000
1!
1"
1#
1$
1.
1/
b1 >
1?
1@

#100000
0!
0#
0.
0?

#105000
1!
1#
1.
1=
b10 >
1?

#110000
0!
0#
0.
0?

#115000
1!
1#
1.
b11 >
1?

#120000
0!
0#
0.
0?

#125000
1!
1#
1.
b0 >
1?

#130000
0!
0#
0.
0?

#135000
1!
1#
1.
b1 >
1?

#140000
0!
0#
0.
0?

#145000
1!
1#
1.
0=
b10 >
1?

#150000
0!
0#
0.
0?

#155000
1!
1#
1.
b11 >
1?

#160000
0!
0#
0.
0?

#165000
1!
1#
1.
b0 >
1?

#170000
0!
0#
0.
0?

#175000
1!
1#
1.
b1 >
1?

#180000
0!
0#
0.
0?

#185000
1!
1#
1.
1=
b10 >
1?

#190000
0!
0#
0.
0?

#195000
1!
1#
1.
b11 >
1?

#200000
0!
0#
0.
0?

#205000
1!
1#
1.
b0 >
1?

#210000
0!
0#
0.
0?

#215000
1!
1#
1.
b1 >
1?

#220000
0!
0#
0.
0?

#225000
1!
1#
1.
0=
b10 >
1?

#230000
0!
0#
0.
0?

#235000
1!
1#
1.
b11 >
1?

#240000
0!
0#
0.
0?

#245000
1!
1#
1%
1&
b1111111 '
b10101010 (
1.
10
11
b1111111 2
b10101010 3
b0 >
1?

#250000
0!
0#
0.
0?

#255000
1!
1#
1.
b1 >
1?

#260000
0!
0#
0.
0?

#265000
1!
1#
1.
b1 :
1=
b10 >
1?

#270000
0!
0#
0.
0?

#275000
1!
1#
1.
b11 >
1?

#280000
0!
0#
0.
0?

#285000
1!
1#
1.
b0 >
1?

#290000
0!
0#
0.
0?

#295000
1!
1#
1.
b1 >
1?

#300000
0!
0#
0.
0?

#305000
1!
1#
1.
0=
b10 >
1?

#310000
0!
0#
0.
0?

#315000
1!
1#
1.
b11 >
1?

#320000
0!
0#
0.
0?

#325000
1!
1#
1.
b0 >
1?

#330000
0!
0#
0.
0?

#335000
1!
1#
1.
b1 >
1?

#340000
0!
0#
0.
0?

#345000
1!
1#
0%
0-
1.
00
08
b10 :
b110 ;
1=
b10 >
1?
1H

#350000
0!
0#
0.
0?

#355000
1!
1#
1.
b11 >
1?
0G
0H
b1 J
b111 K

#360000
0!
0#
0.
0?

#365000
1!
1#
1.
b0 >
1?
b110 K

#370000
0!
0#
0.
0?

#375000
1!
1#
1.
b1 >
1?
b101 K

#380000
0!
0#
0.
0?

#385000
1!
1#
1.
0=
b10 >
1?
b100 K

#390000
0!
0#
0.
0?

#395000
1!
1#
1.
b11 >
1?
b11 K

#400000
0!
0#
0.
0?

#405000
1!
1#
1.
b0 >
1?
b10 K

#410000
0!
0#
0.
0?

#415000
1!
1#
1.
b1 >
1?
b1 K

#420000
0!
0#
0.
0?

#425000
1!
1#
1-
1.
17
18
b101 ;
1=
b10 >
1?
1I
b0 K

#430000
0!
0#
0.
0?

#435000
1!
1#
1.
b11 >
1?
1G
0I
b0 J

#440000
0!
0#
0.
0?

#445000
1!
1#
1.
b0 >
1?

#450000
0!
0#
0.
0?

#455000
1!
1#
1.
b1 >
1?

#460000
0!
0#
0.
0?

#465000
1!
1#
1.
0=
b10 >
1?

#470000
0!
0#
0.
0?

#475000
1!
1#
1.
b11 >
1?

#480000
0!
0#
0.
0?

#485000
1!
1#
1.
b0 >
1?

#490000
0!
0#
0.
0?

#495000
1!
1#
1.
b1 >
1?

#500000
0!
0#
0.
0?

#505000
1!
1#
1.
17
b100 ;
1=
b10 >
1?

#510000
0!
0#
0.
0?

#515000
1!
1#
1.
b11 >
1?

#520000
0!
0#
0.
0?

#525000
1!
1#
1.
b0 >
1?

#530000
0!
0#
0.
0?

#535000
1!
1#
1.
b1 >
1?

#540000
0!
0#
0.
0?

#545000
1!
1#
1.
0=
b10 >
1?

#550000
0!
0#
0.
0?

#555000
1!
1#
1.
b11 >
1?

#560000
0!
0#
0.
0?

#565000
1!
1#
1.
b0 >
1?

#570000
0!
0#
0.
0?

#575000
1!
1#
1.
b1 >
1?

#580000
0!
0#
0.
0?

#585000
1!
1#
1.
17
b11 ;
1=
b10 >
1?

#590000
0!
0#
0.
0?

#595000
1!
1#
1.
b11 >
1?

#600000
0!
0#
0.
0?

#605000
1!
1#
1.
b0 >
1?

#610000
0!
0#
0.
0?

#615000
1!
1#
1.
b1 >
1?

#620000
0!
0#
0.
0?

#625000
1!
1#
1.
0=
b10 >
1?

#630000
0!
0#
0.
0?

#635000
1!
1#
1.
b11 >
1?

#640000
0!
0#
0.
0?

#645000
1!
1#
1.
b0 >
1?

#650000
0!
0#
0.
0?

#655000
1!
1#
1.
b1 >
1?

#660000
0!
0#
0.
0?

#665000
1!
1#
1.
17
b10 ;
1=
b10 >
1?

#670000
0!
0#
0.
0?

#675000
1!
1#
1.
b11 >
1?

#680000
0!
0#
0.
0?

#685000
1!
1#
1.
b0 >
1?

#690000
0!
0#
0.
0?

#695000
1!
1#
1.
b1 >
1?

#700000
0!
0#
0.
0?

#705000
1!
1#
1.
0=
b10 >
1?

#710000
0!
0#
0.
0?

#715000
1!
1#
1.
b11 >
1?

#720000
0!
0#
0.
0?

#725000
1!
1#
1.
b0 >
1?

#730000
0!
0#
0.
0?

#735000
1!
1#
1.
b1 >
1?

#740000
0!
0#
0.
0?

#745000
1!
1#
1.
17
b1 ;
1=
b10 >
1?

#750000
0!
0#
0.
0?

#755000
1!
1#
1.
b11 >
1?

#760000
0!
0#
0.
0?

#765000
1!
1#
1.
b0 >
1?

#770000
0!
0#
0.
0?

#775000
1!
1#
1.
b1 >
1?

#780000
0!
0#
0.
0?

#785000
1!
1#
1.
0=
b10 >
1?

#790000
0!
0#
0.
0?

#795000
1!
1#
1.
b11 >
1?

#800000
0!
0#
0.
0?

#805000
1!
1#
1.
b0 >
1?

#810000
0!
0#
0.
0?

#815000
1!
1#
1.
b1 >
1?

#820000
0!
0#
0.
0?

#825000
1!
1#
1.
17
b0 ;
1=
b10 >
1?

#830000
0!
0#
0.
0?

#835000
1!
1#
1.
b11 >
1?

#840000
0!
0#
0.
0?

#845000
1!
1#
1.
b0 >
1?

#850000
0!
0#
0.
0?

#855000
1!
1#
1.
b1 >
1?

#860000
0!
0#
0.
0?

#865000
1!
1#
1.
0=
b10 >
1?

#870000
0!
0#
0.
0?

#875000
1!
1#
1.
b11 >
1?

#880000
0!
0#
0.
0?

#885000
1!
1#
1.
b0 >
1?

#890000
0!
0#
0.
0?

#895000
1!
1#
1.
b1 >
1?

#900000
0!
0#
0.
0?

#905000
1!
1#
1.
17
b11 :
1=
b10 >
1?

#910000
0!
0#
0.
0?

#915000
1!
1#
1.
b11 >
1?

#920000
0!
0#
0.
0?

#925000
1!
1#
1.
b0 >
1?

#930000
0!
0#
0.
0?

#935000
1!
1#
1.
b1 >
1?

#940000
0!
0#
0.
0?

#945000
1!
1#
1.
0=
b10 >
1?

#950000
0!
0#
0.
0?

#955000
1!
1#
1.
b11 >
1?

#960000
0!
0#
0.
0?

#965000
1!
1#
1.
b0 >
1?

#970000
0!
0#
0.
0?

#975000
1!
1#
1.
b1 >
1?

#980000
0!
0#
0.
0?

#985000
1!
1#
1.
17
b100 :
1=
b10 >
1?

#990000
0!
0#
0.
0?

#995000
1!
1#
1.
b11 >
1?
