sim_logs/run_18.log
INFO: [VRFC 10-2263] Analyzing SystemVerilog file "C:/VivadoProjects/i2c_ai_verification/rtl/i2c_master.v" into library work
INFO: [VRFC 10-311] analyzing module i2c_master
INFO: [VRFC 10-2263] Analyzing SystemVerilog file "C:/VivadoProjects/i2c_ai_verification/rtl/i2c_slave.v" into library work
INFO: [VRFC 10-311] analyzing module i2c_slave
INFO: [VRFC 10-2263] Analyzing SystemVerilog file "C:/VivadoProjects/i2c_ai_verification/sim/i2c_tb.sv" into library work
INFO: [VRFC 10-311] analyzing module i2c_tb


Vivado Simulator v2025.2
Copyright 1986-2022 Xilinx, Inc. All Rights Reserved.
Copyright 2022-2025 Advanced Micro Devices, Inc. All Rights Reserved.
Running: C:/AMDDesignTools/2025.2/Vivado/bin/unwrapped/win64.o/xelab.exe -debug typical -nolog work.i2c_tb -s i2c_tb_snapshot 
Multi-threading is on. Using 10 slave threads.
Starting static elaboration
Pass Through NonSizing Optimizer
Completed static elaboration
Starting simulation data flow analysis
Completed simulation data flow analysis
Time Resolution for simulation is 1ps
Compiling package std.std
Compiling package work.$unit_i2c_master_v_4220842907
Compiling module work.i2c_if_default
Compiling module work.i2c_master
Compiling module work.i2c_slave
Compiling module work.i2c_tb
Built simulation snapshot i2c_tb_snapshot



****** xsim v2025.2 (64-bit)
  **** SW Build 6299465 on Fri Nov 14 19:35:11 GMT 2025
  **** IP Build 6300035 on Fri Nov 14 10:48:45 MST 2025
  **** SharedData Build 6298862 on Thu Nov 13 04:50:51 MST 2025
  **** Start of session at: Tue May 12 20:06:51 2026
    ** Copyright 1986-2022 Xilinx, Inc. All Rights Reserved.
    ** Copyright 2022-2025 Advanced Micro Devices, Inc. All Rights Reserved.

source xsim.dir/i2c_tb_snapshot/xsim_script.tcl
# xsim {i2c_tb_snapshot} -autoloadwcfg -runall
Time resolution is 1 ps
run -all

======================================================
  I2C Vivado Simulation
  AI Profile : nack_test
======================================================

[DRV] ADDR=0x7f  READ   DATA=0xaa  t=165000
[MON] ADDR=0x7f  READ   DATA=0xaa  t=1145000
[DRV] ADDR=0x7f  WRITE  DATA=0xff  t=1165000
[SCB] PASS #1  ADDR=0x7f  READ   ACK=1
[MON] ADDR=0x7f  WRITE  DATA=0xff  t=2905000
[DRV] ADDR=0x7f  WRITE  DATA=0xaa  t=2925000
[SCB] PASS #2  ADDR=0x7f  WRITE  ACK=1
[MON] ADDR=0x7f  WRITE  DATA=0xaa  t=4665000
[DRV] ADDR=0x7f  WRITE  DATA=0xff  t=4685000
[SCB] PASS #3  ADDR=0x7f  WRITE  ACK=1
[MON] ADDR=0x7f  WRITE  DATA=0xff  t=6425000
[DRV] ADDR=0x7f  READ   DATA=0xff  t=6445000
[SCB] PASS #4  ADDR=0x7f  WRITE  ACK=1
[MON] ADDR=0x7f  READ   DATA=0xff  t=7465000
[DRV] ADDR=0x7f  WRITE  DATA=0xaa  t=7485000
[SCB] PASS #5  ADDR=0x7f  READ   ACK=1
[MON] ADDR=0x7f  WRITE  DATA=0xaa  t=9225000
[DRV] ADDR=0x7f  READ   DATA=0xaa  t=9245000
[SCB] PASS #6  ADDR=0x7f  WRITE  ACK=1
[MON] ADDR=0x7f  READ   DATA=0xaa  t=10265000
[DRV] ADDR=0x7f  WRITE  DATA=0xaa  t=10285000
[SCB] PASS #7  ADDR=0x7f  READ   ACK=1
[MON] ADDR=0x7f  WRITE  DATA=0xaa  t=12025000
[DRV] ADDR=0x7f  READ   DATA=0x55  t=12045000
[SCB] PASS #8  ADDR=0x7f  WRITE  ACK=1
[MON] ADDR=0x7f  READ   DATA=0x55  t=13065000
[DRV] ADDR=0x7f  WRITE  DATA=0xaa  t=13085000
[SCB] PASS #9  ADDR=0x7f  READ   ACK=1
[MON] ADDR=0x7f  WRITE  DATA=0xaa  t=14825000
[DRV] ADDR=0x7f  WRITE  DATA=0x55  t=14845000
[SCB] PASS #10  ADDR=0x7f  WRITE  ACK=1
[MON] ADDR=0x7f  WRITE  DATA=0x55  t=16585000
[DRV] ADDR=0x7f  READ   DATA=0x55  t=16605000
[SCB] PASS #11  ADDR=0x7f  WRITE  ACK=1
[MON] ADDR=0x7f  READ   DATA=0x55  t=17625000
[DRV] ADDR=0x7f  READ   DATA=0x55  t=17645000
[SCB] PASS #12  ADDR=0x7f  READ   ACK=1
[MON] ADDR=0x7f  READ   DATA=0x55  t=18665000
[DRV] ADDR=0x7f  WRITE  DATA=0xff  t=18685000
[SCB] PASS #13  ADDR=0x7f  READ   ACK=1
[MON] ADDR=0x7f  WRITE  DATA=0xff  t=20425000
[DRV] ADDR=0x7f  WRITE  DATA=0xaa  t=20445000
[SCB] PASS #14  ADDR=0x7f  WRITE  ACK=1
[MON] ADDR=0x7f  WRITE  DATA=0xaa  t=22185000
[DRV] ADDR=0x7f  READ   DATA=0xff  t=22205000
[SCB] PASS #15  ADDR=0x7f  WRITE  ACK=1
[MON] ADDR=0x7f  READ   DATA=0xff  t=23225000
[DRV] ADDR=0x7f  WRITE  DATA=0x00  t=23245000
[SCB] PASS #16  ADDR=0x7f  READ   ACK=1
[MON] ADDR=0x7f  WRITE  DATA=0x00  t=24985000
[DRV] ADDR=0x7f  READ   DATA=0xff  t=25005000
[SCB] PASS #17  ADDR=0x7f  WRITE  ACK=1
[MON] ADDR=0x7f  READ   DATA=0xff  t=26025000
[DRV] ADDR=0x7f  WRITE  DATA=0xaa  t=26045000
[SCB] PASS #18  ADDR=0x7f  READ   ACK=1
[MON] ADDR=0x7f  WRITE  DATA=0xaa  t=27785000
[DRV] ADDR=0x7f  WRITE  DATA=0x00  t=27805000
[SCB] PASS #19  ADDR=0x7f  WRITE  ACK=1
[MON] ADDR=0x7f  WRITE  DATA=0x00  t=29545000
[DRV] ADDR=0x7f  WRITE  DATA=0xaa  t=29565000
[SCB] PASS #20  ADDR=0x7f  WRITE  ACK=1
[MON] ADDR=0x7f  WRITE  DATA=0xaa  t=31305000
[DRV] ADDR=0x7f  READ   DATA=0xff  t=31325000
[SCB] PASS #21  ADDR=0x7f  WRITE  ACK=1
[MON] ADDR=0x7f  READ   DATA=0xff  t=32345000
[DRV] ADDR=0x7f  WRITE  DATA=0xff  t=32365000
[SCB] PASS #22  ADDR=0x7f  READ   ACK=1
[MON] ADDR=0x7f  WRITE  DATA=0xff  t=34105000
[DRV] ADDR=0x7f  READ   DATA=0xaa  t=34125000
[SCB] PASS #23  ADDR=0x7f  WRITE  ACK=1
[MON] ADDR=0x7f  READ   DATA=0xaa  t=35145000
[DRV] ADDR=0x7f  READ   DATA=0xaa  t=35165000
[SCB] PASS #24  ADDR=0x7f  READ   ACK=1
[MON] ADDR=0x7f  READ   DATA=0xaa  t=36185000
[DRV] ADDR=0x7f  WRITE  DATA=0x00  t=36205000
[SCB] PASS #25  ADDR=0x7f  READ   ACK=1
[MON] ADDR=0x7f  WRITE  DATA=0x00  t=37945000
[DRV] ADDR=0x7f  READ   DATA=0x00  t=37965000
[SCB] PASS #26  ADDR=0x7f  WRITE  ACK=1
[MON] ADDR=0x7f  READ   DATA=0x00  t=38985000
[DRV] ADDR=0x7f  READ   DATA=0x00  t=39005000
[SCB] PASS #27  ADDR=0x7f  READ   ACK=1
[MON] ADDR=0x7f  READ   DATA=0x00  t=40025000
[DRV] ADDR=0x7f  WRITE  DATA=0xaa  t=40045000
[SCB] PASS #28  ADDR=0x7f  READ   ACK=1
[MON] ADDR=0x7f  WRITE  DATA=0xaa  t=41785000
[DRV] ADDR=0x7f  WRITE  DATA=0x55  t=41805000
[SCB] PASS #29  ADDR=0x7f  WRITE  ACK=1
[MON] ADDR=0x7f  WRITE  DATA=0x55  t=43545000
[DRV] ADDR=0x7f  WRITE  DATA=0x00  t=43565000
[SCB] PASS #30  ADDR=0x7f  WRITE  ACK=1
[MON] ADDR=0x7f  WRITE  DATA=0x00  t=45305000
[DRV] ADDR=0x7f  READ   DATA=0x00  t=45325000
[SCB] PASS #31  ADDR=0x7f  WRITE  ACK=1
[MON] ADDR=0x7f  READ   DATA=0x00  t=46345000
[DRV] ADDR=0x7f  WRITE  DATA=0xaa  t=46365000
[SCB] PASS #32  ADDR=0x7f  READ   ACK=1
[MON] ADDR=0x7f  WRITE  DATA=0xaa  t=48105000
[DRV] ADDR=0x7f  WRITE  DATA=0x00  t=48125000
[SCB] PASS #33  ADDR=0x7f  WRITE  ACK=1
[MON] ADDR=0x7f  WRITE  DATA=0x00  t=49865000
[DRV] ADDR=0x7f  READ   DATA=0x00  t=49885000
[SCB] PASS #34  ADDR=0x7f  WRITE  ACK=1

============ SCOREBOARD REPORT ============
  PASS  : 34
  FAIL  : 0
  TOTAL : 34
  STATUS: ALL TRANSACTIONS PASSED
===========================================


============ COVERAGE REPORT ============
  Addr Reserved (0x00-07):   0 hits  MISS
  Addr Low      (0x08-1F):   0 hits  MISS
  Addr Mid      (0x20-5F):   0 hits  MISS
  Addr High     (0x60-77):   0 hits  MISS
  RW Write               :  20 hits   HIT
  RW Read                :  14 hits   HIT
  ACK received           :  34 hits   HIT
  NACK received          :   0 hits  MISS
  Data = 0x00            :   8 hits   HIT
  Data = 0xFF            :   8 hits   HIT
  Data = 0x55 or 0xAA    :  18 hits   HIT
  ----------------------------------------
  TOTAL: 54.5% (6/11 bins hit)
=========================================

=== AI COVERAGE DATA START ===
[COV] ADDR_RESERVED=0
[COV] ADDR_LOW=0
[COV] ADDR_MID=0
[COV] ADDR_HIGH=0
[COV] RW_WRITE=20
[COV] RW_READ=14
[COV] ACK=34
[COV] NACK=0
[COV] DATA_ZERO=8
[COV] DATA_ONES=8
[COV] DATA_ALT=18
[COV] TOTAL_TXN=34
=== AI COVERAGE DATA END ===
======================================================
  Simulation Complete
======================================================
$finish called at time : 50145 ns : File "C:/VivadoProjects/i2c_ai_verification/sim/i2c_tb.sv" Line 534
exit
INFO: [Common 17-206] Exiting xsim at Tue May 12 20:06:53 2026...

